[
    {
        "title": "Titulo 1",
        "description": "Lorem ipsum dolor sit amet, consectetur adipiscing elit. Proin vulputate pellentesque neque, in viverra mauris suscipit sed. Nam maximus lectus id enim vulputate, nec egestas enim blandit. ",
        "date": "23 de Mayo",
        "category": " Construcciones",
        "image": "url",
        "video": "url"
    }
]